%YAML 1.1
%TAG !u! tag:unity3d.com,2011:
--- !u!1045 &1
EditorBuildSettings:
  m_ObjectHideFlags: 0
  serializedVersion: 2
  m_Scenes:
  - enabled: 1
    path: Assets/scenes/00.title/TitleScene.unity
    guid: 6a3716b619bfdee4aa19df173871ec65
  - enabled: 1
    path: Assets/scenes/01.farmhouse/01.farmhouse.unity
    guid: 273a20d5928b63d4f83ca322595d19cb
  - enabled: 1
    path: Assets/scenes/02.climbthehill/02.climbthehill.unity
    guid: b045e32b39488f641a66af9e9916ba00
  - enabled: 1
    path: Assets/scenes/03.approachmeteor/03.ApproachMeteor.unity
    guid: 1d0882db39ac9f14a885b8c5d72dff08
  - enabled: 1
    path: Assets/scenes/04.watchdistance/04.WatchDistance.unity
    guid: bb8702820bdaf2a42943cadb6c146c59
  - enabled: 1
    path: Assets/scenes/05.getcamera/05.getcamera.unity
    guid: fd3589eaf4b475b43a3aebdcd759d41c
  - enabled: 1
    path: Assets/scenes/06.runforward/06.RunForward.unity
    guid: f99339e53255f734da92ff94174427e6
  - enabled: 1
    path: Assets/scenes/07.yellloudly/07.YellLoudly.unity
    guid: d7a54fb0155bab34fa49905dfce39fa7
  - enabled: 1
    path: Assets/scenes/08.followthem/08.FollowThem.unity
    guid: 9feaedda827ff2c489f90f8dc62c77d4
  - enabled: 1
    path: Assets/scenes/09.takephotoslawn/09.TakePhotosLawn.unity
    guid: cf88bb35936b6a24c8d6942d7c225855
  - enabled: 1
    path: Assets/scenes/10.takephotosroof/10.TakePhotosRoof.unity
    guid: b481d2cb756e15e42a3cea72ade9a3ce
  - enabled: 1
    path: Assets/scenes/11.coverears/11.CoverEars.unity
    guid: 5dcc10b0c9c24db43be2eca6a7e7f354
  - enabled: 1
    path: Assets/scenes/12.listen/12.listen.unity
    guid: 65e4a455420b33f41b98cde26e577843
  - enabled: 1
    path: Assets/scenes/13.flee/13.Flee.unity
    guid: 1dd9d03e6ff625f4880a833b694960fc
  - enabled: 1
    path: Assets/scenes/14.stay/14.Stay.unity
    guid: efc34ecc9239ba147a70ad181bfcf7c2
  - enabled: 1
    path: Assets/scenes/15.grabchimney/15.GrabChimney.unity
    guid: c2e4df43e46d39742bedecff398b7289
  - enabled: 1
    path: Assets/scenes/16.takephoto/16.TakePhoto.unity
    guid: 46f4ce98550d8f048bddb89ea270d354
  - enabled: 1
    path: Assets/scenes/17.seekhigher/17.SeekHigher.unity
    guid: ae10ca7299e345343893517b9c555c80
  - enabled: 1
    path: Assets/scenes/18.seekshelter/18.SeekShelter.unity
    guid: e8c25e842f32aff44b2bc0f94dbe955a
  - enabled: 1
    path: Assets/scenes/19.listenradio/19.ListenRadio.unity
    guid: 09946c2b3660c0549a28d2dc8b1191f3
  - enabled: 1
    path: Assets/scenes/20.getout/20.GetOut.unity
    guid: e18a4231d5e1ea448b0465f23577dfc2
  - enabled: 1
    path: Assets/scenes/21.anayaacres/21.AnayaAcres.unity
    guid: c22ecff4a7d10c7418911dfa68e77cbd
  - enabled: 1
    path: Assets/scenes/22.dream/22.Dream.unity
    guid: 990600b3ff6ac29409c6702d9c301ea7
  - enabled: 1
    path: Assets/scenes/23.turnback/23.TurnBack.unity
    guid: 32cc8b62ccdadff4ead71d04020e09e4
  m_configObjects: {}
