﻿<?xml version="1.0" encoding="utf-8"?>
<COLLADA xmlns:xsi="http://www.w3.org/2001/XMLSchema-instance" xmlns:xsd="http://www.w3.org/2001/XMLSchema" version="1.4.1" xmlns="http://www.collada.org/2005/11/COLLADASchema">
  <asset>
    <contributor>
      <author />
      <authoring_tool>Unity3D 5.4.3f1 - COLLADA exporter v1.6.1</authoring_tool>
      <comments />
      <copyright />
      <source_data>text_box.unity</source_data>
    </contributor>
    <created>2016-12-04T11:13:03.7455095-05:00</created>
    <modified>2016-12-04T11:13:03.7455095-05:00</modified>
    <unit meter="1" name="meter" />
    <up_axis>Y_UP</up_axis>
  </asset>
  <library_images>
    <image id="_769c56f5084d3764fa222be2f708635f" name="TextBox">
      <init_from>textures/interface/TextBox.png</init_from>
    </image>
  </library_images>
  <library_materials>
    <material id="_fb32aaedb44b06844a7d83d482481338" name="TextBox">
      <instance_effect url="#_fb32aaedb44b06844a7d83d482481338-fx" />
    </material>
  </library_materials>
  <library_effects>
    <effect id="_fb32aaedb44b06844a7d83d482481338-fx" name="Standard">
      <profile_COMMON>
        <newparam sid="_Color">
          <semantic>Color</semantic>
          <float4>1.000000 1.000000 1.000000 1.000000</float4>
        </newparam>
        <newparam sid="_769c56f5084d3764fa222be2f708635f-surface">
          <semantic>Albedo</semantic>
          <surface type="2D">
            <init_from>_769c56f5084d3764fa222be2f708635f</init_from>
            <format>DXT1</format>
          </surface>
        </newparam>
        <newparam sid="_769c56f5084d3764fa222be2f708635f-sampler">
          <sampler2D>
            <source>_769c56f5084d3764fa222be2f708635f-surface</source>
            <wrap_s>CLAMP</wrap_s>
            <wrap_t>CLAMP</wrap_t>
            <minfilter>NEAREST</minfilter>
            <magfilter>NEAREST</magfilter>
          </sampler2D>
        </newparam>
        <newparam sid="_Cutoff">
          <float>0.500000</float>
        </newparam>
        <newparam sid="_Glossiness">
          <float>0.000000</float>
        </newparam>
        <newparam sid="_Metallic">
          <float>0.000000</float>
        </newparam>
        <newparam sid="_BumpScale">
          <float>1.000000</float>
        </newparam>
        <newparam sid="_Parallax">
          <float>0.020000</float>
        </newparam>
        <newparam sid="_OcclusionStrength">
          <float>1.000000</float>
        </newparam>
        <newparam sid="_EmissionColor">
          <semantic>Color</semantic>
          <float4>0.000000 0.000000 0.000000 1.000000</float4>
        </newparam>
        <newparam sid="_DetailNormalMapScale">
          <float>1.000000</float>
        </newparam>
        <newparam sid="_UVSec">
          <float>0.000000</float>
        </newparam>
        <newparam sid="_Mode">
          <float>0.000000</float>
        </newparam>
        <newparam sid="_SrcBlend">
          <float>1.000000</float>
        </newparam>
        <newparam sid="_DstBlend">
          <float>0.000000</float>
        </newparam>
        <newparam sid="_ZWrite">
          <float>1.000000</float>
        </newparam>
        <technique sid="common">
          <phong>
            <diffuse>
              <texture texture="_769c56f5084d3764fa222be2f708635f-sampler" texcoord="TEX0" />
            </diffuse>
          </phong>
        </technique>
      </profile_COMMON>
    </effect>
  </library_effects>
  <library_geometries>
    <geometry id="_450" name="Cube">
      <mesh>
        <source id="_450-positions">
          <float_array id="_450-positions-array" count="72">
-0.500000 -0.500000 0.500000 
0.500000 -0.500000 0.500000 
-0.500000 0.500000 0.500000 
0.500000 0.500000 0.500000 
-0.500000 0.500000 -0.500000 
0.500000 0.500000 -0.500000 
-0.500000 -0.500000 -0.500000 
0.500000 -0.500000 -0.500000 
-0.500000 0.500000 0.500000 
0.500000 0.500000 0.500000 
-0.500000 0.500000 -0.500000 
0.500000 0.500000 -0.500000 
-0.500000 -0.500000 -0.500000 
-0.500000 -0.500000 0.500000 
0.500000 -0.500000 0.500000 
0.500000 -0.500000 -0.500000 
0.500000 -0.500000 0.500000 
0.500000 0.500000 0.500000 
0.500000 0.500000 -0.500000 
0.500000 -0.500000 -0.500000 
-0.500000 -0.500000 -0.500000 
-0.500000 0.500000 -0.500000 
-0.500000 0.500000 0.500000 
-0.500000 -0.500000 0.500000</float_array>
          <technique_common>
            <accessor count="24" source="#_450-positions-array" stride="3">
              <param name="X" type="float" />
              <param name="Y" type="float" />
              <param name="Z" type="float" />
            </accessor>
          </technique_common>
        </source>
        <source id="_450-normals">
          <float_array id="_450-normals-array" count="72">
0.000000 0.000000 1.000000 
0.000000 0.000000 1.000000 
0.000000 0.000000 1.000000 
0.000000 0.000000 1.000000 
0.000000 1.000000 0.000000 
0.000000 1.000000 0.000000 
0.000000 0.000000 -1.000000 
0.000000 0.000000 -1.000000 
0.000000 1.000000 0.000000 
0.000000 1.000000 0.000000 
0.000000 0.000000 -1.000000 
0.000000 0.000000 -1.000000 
0.000000 -1.000000 0.000000 
0.000000 -1.000000 0.000000 
0.000000 -1.000000 0.000000 
0.000000 -1.000000 0.000000 
1.000000 0.000000 0.000000 
1.000000 0.000000 0.000000 
1.000000 0.000000 0.000000 
1.000000 0.000000 0.000000 
-1.000000 0.000000 0.000000 
-1.000000 0.000000 0.000000 
-1.000000 0.000000 0.000000 
-1.000000 0.000000 0.000000</float_array>
          <technique_common>
            <accessor count="24" source="#_450-normals-array" stride="3">
              <param name="X" type="float" />
              <param name="Y" type="float" />
              <param name="Z" type="float" />
            </accessor>
          </technique_common>
        </source>
        <source id="_450-uv0">
          <float_array id="_450-uv0-array" count="48">
0.000000 0.000000 
1.000000 0.000000 
0.000000 1.000000 
1.000000 1.000000 
0.000000 1.000000 
1.000000 1.000000 
0.000000 1.000000 
1.000000 1.000000 
0.000000 0.000000 
1.000000 0.000000 
0.000000 0.000000 
1.000000 0.000000 
0.000000 0.000000 
0.000000 1.000000 
1.000000 1.000000 
1.000000 0.000000 
0.000000 0.000000 
0.000000 1.000000 
1.000000 1.000000 
1.000000 0.000000 
0.000000 0.000000 
0.000000 1.000000 
1.000000 1.000000 
1.000000 0.000000</float_array>
          <technique_common>
            <accessor count="24" source="#_450-uv0-array" stride="2">
              <param name="S" type="float" />
              <param name="T" type="float" />
            </accessor>
          </technique_common>
        </source>
        <vertices id="_450-vertices">
          <input semantic="POSITION" source="#_450-positions" />
        </vertices>
        <triangles count="12" material="material-0">
          <input offset="0" semantic="VERTEX" source="#_450-vertices" />
          <input offset="0" semantic="NORMAL" source="#_450-normals" />
          <input offset="0" semantic="TEXCOORD" source="#_450-uv0" set="0" />
          <p>2 0 3 3 0 1 4 8 5 5 8 9 6 10 7 7 10 11 13 12 14 14 12 15 17 16 18 18 16 19 21 20 22 22 20 23</p>
        </triangles>
      </mesh>
    </geometry>
  </library_geometries>
  <library_visual_scenes>
    <visual_scene id="collada_scene">
      <node id="_-5895846" name="textbox">
        <matrix sid="matrix">

2.000000 0.000000 0.000000 0.000000 
0.000000 1.000000 0.000000 0.000000 
0.000000 0.000000 0.100000 -0.100000 
0.000000 0.000000 0.000000 1.000000</matrix>
        <instance_geometry url="#_450">
          <bind_material>
            <technique_common>
              <instance_material symbol="material-0" target="#_fb32aaedb44b06844a7d83d482481338">
                <bind_vertex_input semantic="TEX0" input_semantic="TEXCOORD" input_set="0" />
              </instance_material>
            </technique_common>
            <extra>
              <technique profile="fl4re">
                <shadows>
                  <castShadows>true</castShadows>
                  <receiveShadows>true</receiveShadows>
                </shadows>
              </technique>
            </extra>
          </bind_material>
        </instance_geometry>
      </node>
    </visual_scene>
  </library_visual_scenes>
  <scene>
    <instance_visual_scene url="#collada_scene" />
  </scene>
</COLLADA>